Yellowtang Clean Script
…
##get summary stats on genus treemap
genus_table <- genus_renamed %>%
  mutate(Percent = round(mean * 100, 2)) %>%
  select(Timepoint_label, Genus_clean, Percent) %>%
  pivot_wider(names_from = Timepoint_label, values_from = Percent, values_fill = 0)

print(genus_table)

## # A tibble: 21 × 9
##    Genus_clean       `2 dph` `5 dph` `8 dph` `13 dph` `20 dph` `36 dph` `55 dph`
##    <fct>               <dbl>   <dbl>   <dbl>    <dbl>    <dbl>    <dbl>    <dbl>
##  1 Unidentified Gam…   10.9    12.4     7.32     3.18     5.61     0        0   
##  2 Unidentified Alt…    4.97    0       0        0        0        0        0   
##  3 Unidentified Rho…    4.31    8.22   13.6     11.7     17.6      0        3.94
##  4 Other               29.4    24.5    32.1     29.9     35.8      2.83     1.88
##  5 Alteromonas         17.6     0       3.36     0        0        0        0   
##  6 Marinicella          5.19    0       0        0        0        0        0   
##  7 Planktomarina       13.9     0       0        0        0        0        0   
##  8 Pseudoalteromonas    5.65    5.33    3.42     4.33     6.41     0        0   
##  9 Pseudomonas          4.24    3.18    0        5.08     7.27     0        0   
## 10 Vibrio               3.93   15.9     8.98    14.1     11.1     97.2     94.2 
## # ℹ 11 more rows
## # ℹ 1 more variable: `76 dph` <dbl>
…
